0.7471494184669423,0.8145238598962191
1.248756715378704,2.7427414721892127
1.386916448701727,2.2661782786824642
0.7683177424796201,2.148402235117095
1.073596458405874,3.124629544936915
0.7341826509399211,-1.3174049933794267
0.49557107093595565,0.2500975821759861
0.45152238954281104,1.8023723532424538
0.43734785252612135,-2.797426370942869
0.3867801861551985,-1.8876204703264627
0.4075292557125807,-0.6044577715282395
0.4225816478716155,0.7197580948087129
0.47324512136196395,2.2611053731399684
0.5904177137876624,-2.4047585225666945
0.5572907838940278,-0.8718649162287927
1.031691283174691,0.19963446387775674
1.4544123747241735,1.9970718798630218
2.4950785973193312,2.123986058308116
1.344059612555414,1.3847721062131602
1.4338232446114967,2.5686035260741162
1.1254290866390293,-1.424359941908952
0.6900977157394086,-0.047987187146264175
0.6988528268801235,1.1511646398199125
0.3779750433330222,2.9226659566515854
0.22090958426958301,-2.5508302251952064
0.32522526794705314,-1.328779549613967
0.4516398368993262,0.4619964503818815
0.5468216691457646,1.881229048806355
0.9300606490380722,-2.6438250804777566
0.625144306332202,-0.913560165337317
0.6944144266737622,0.43208909318944105
0.7931316152798854,2.0799331902446223
0.8348973095448325,-2.8524036990551798
3.191762464197171,-2.4755806377882443
2.921142304544577,2.4590647102780694
2.081466579371382,-2.241720001095453
0.9114487838841412,-0.7928544970580516
0.7563779842319316,0.5161778480258213
0.6334992587226997,2.2267604089536652
0.5328443501085285,-2.6714815049077063
0.7004139089203326,-1.3198962968515071
0.6639482906947874,0.30679673609397495
0.607678253468758,1.6089244369866555
0.7012235797718706,-3.0164600375649817
0.5609661446104783,-1.4550492787812759
0.6288524001095269,-0.10930216779912177
0.9792333478157542,1.2846837568856695
1.0065423805269405,2.535108752812638
1.9638981888466722,-3.064446578028927
5.207972401844119,-2.3811276074169467
2.22190402985347,-1.4741861847065325
