0.8671202198928705,-0.38190875050043543
0.720358149539991,0.3142379259065885
0.6353026462605834,0.7687959872612351
0.8444846527897888,-0.2984989489983281
0.633924544504478,1.05958695929753
1.060463048418171,-0.13826253112873926
1.1262595781549765,-0.06807404153048527
0.982602363462296,0.9048444546375568
0.990271693548922,-0.21674465321513742
0.9569742457045174,-0.5317047872599032
0.39077826195355336,0.3922189322154724
1.729499282896064,0.878993909486289
1.1934789811097974,-0.8187059346729675
1.2054242011577807,0.01818012875452202
1.2509510635542422,-0.5634393671302704
1.0801548967086574,-0.3708795637277098
0.8143598670311916,-0.17434763007682727
0.7883277535668994,0.06475537472117415
0.8503331263853243,0.12292221019081674
1.1682181758066428,0.38885818364232677
1.0374119796176686,-0.18535517412706468
1.5730755284082834,-0.44352942938914025
1.8447735651520514,-0.5467950073351634
1.0488605911776312,-0.939713336164526
1.0885484744429346,0.3162369334485972
0.37241829188809406,-0.10110345071802546
0.9604335238358405,-0.3310941966465271
0.9253158534033284,0.21599284081266698
1.0890523790021982,0.048741232576681615
1.342812636831323,0.23818843594843236
1.1989446862329596,-0.11972544469020083
1.6111916195538039,-0.39909015843477297
0.4807752602943812,-0.5125131423012285
0.44827492035776484,-0.12063028811509852
1.1550464856732392,0.7266379189575142
1.7460173305309687,0.2572177004697386
1.4933809906364317,-0.4751242134042933
1.1957053041750922,-0.6117189319947997
0.7368236438705879,0.04995941911203362
0.6467654098967028,0.2449787381264301
0.9496789200829931,0.0396901465766617
0.7637320732136695,0.25953724565601427
1.2859041264839148,0.23237451447894622
1.0649918347144076,0.14481604447978455
1.3502394753492026,-0.20291135626258716
1.206735590607673,-0.37298045771599614
0.8036516631338356,-0.36519103389139684
0.46413948665536536,0.05499030395973225
0.8509217160473694,0.27829969129023496
1.2956168622330795,0.21364308011405495
1.2730465057984488,-0.1115514150651641
