2.4907891067589403,-1.355106490712319
3.0770428158509593,-0.645270340866389
2.922710150454198,-0.6107292158543861
2.179018834931217,-0.5366346705945698
7.7324977103317005,-1.5451606630244838
6.074968949010336,-0.06907211899134241
4.920996024598476,-0.21687969700213433
3.428275557909429,0.19554081424096417
6.119223150062841,-0.27050021322398915
3.8632439698544796,-0.7173217507920733
6.105733235977855,0.019478319091577632
7.434767010527662,0.022218233634033174
4.576808984942417,-0.07105228789035573
3.7905752164658333,0.2832426044929238
3.988908588594875,-1.3909482443641992
3.3679989926698313,-0.63818493014356
3.880446093306928,-0.32265259646411704
2.3936860477719293,-0.6710192175330342
3.8001008195097192,-0.22171979103957667
6.398066810921,-0.15091700004225822
6.023392394130736,0.5191511799209324
4.258447394773134,0.16965109159873942
4.837319697042568,-0.2186621742522212
3.221603545697965,-0.019228401725720663
2.4849953393318467,0.4557223823595157
2.982286652181007,-0.5682272792287113
9.912659653007411,-0.19738604354807024
10.347249853996182,-0.2914567574505874
5.92097058725966,-0.43601119909319863
3.067130418882771,-0.6426095913196928
4.7632085097331185,-0.03411492852128654
5.27596819038108,-0.7375465758659165
4.846134498846219,-0.07214254652045421
4.276659368067792,-0.4524636357615474
5.850652988503933,0.6096147475816486
4.868346812055337,-0.0370211437334261
3.8241854392333487,-0.08380855600667984
5.241413766175114,-0.4758495396415492
7.15646772654981,-0.21034940125657758
5.32949609120731,-0.3627667292788792
7.235193369497498,-0.04637980984161926
4.463917347302255,0.34421622407209346
5.326998744125195,-0.12435499920359507
3.2843426636679145,-0.2949781084159472
4.726815462128599,-0.3947753178754056
5.47192695056915,-0.20376118318518993
7.984650262597919,-0.8879858159098173
4.147519523227204,-0.24319578373922238
8.004726135329616,0.3338001879090548
4.843611852267041,0.059174775614804706
8.124233275337188,0.1865775033495019
