0.25130055783711186,0.3217410159917653
3.748000222683158,0.5404250369108108
0.4634201644087253,-1.1691966130701685
1.37756975865792,-0.5880148043205885
1.986813,0.0
1.0774640165452998,0.8621517030462649
0.10086336202845957,-0.4182320204240965
0.9033940254863742,-0.05351788326822899
0.8165637200629783,0.1651486170155484
1.6974978678664696,0.5685345095137717
0.7534281682400055,-1.903623773615205
0.6534603128650507,0.9097572784211022
2.1575255050636133,-0.6869513921449506
0.8835582475615403,-0.41670529429754505
0.12565481362466022,0.32174106666876684
0.8647145081001995,-0.5904578845846399
9.859585642627026,-0.7140907343798787
0.8686913009517939,-0.3430191704127541
0.4999559469791714,0.5374243178068933
2.7022845214990387,-0.3450192894166099
3.04982758100098,-0.11425410741294942
0.84408679125309,-0.045945990535724845
1.4887843422238023,-1.0435015677840294
2.0726630796646615,0.8652290877086243
1.2293171174820963,0.14189623781603414
1.102119758231949,0.05549659269426323
0.6282975796478131,0.32175820469197863
1.079414451740969,0.07677214280023106
0.6655812780353877,-0.5438332905064044
0.887791600973874,0.08028818376222299
0.8634947422434024,-0.5667427183212073
1.4049517787597872,-0.14189857455845095
0.9437163643927766,-0.133910735349964
0.9840277747995735,-0.30970766007037526
0.8031723173485065,-0.24497866312686414
0.8067733152018602,-0.3891597874010368
0.8326050274909708,-0.2110933667767258
1.3580662915479347,-0.34875757861891843
1.9276343178352087,-0.24497861279872404
1.0973295695036485,0.09066052661852016
1.6885847714568227,0.19739736005567796
1.1107456772307331,0.17985475598140302
2.1107513653616334,-0.7298919277943282
0.9046958319710608,-0.13432326858549876
1.3113726139688942,-0.41821952141134583
1.5344228474730948,-0.415804856329434
1.7301471653781364,0.24725676404829008
1.7137403798041904,0.5840769124194978
1.3446739988613572,-0.04730104500805459
1.782097137718169,0.43896251572764733
0.551096863815473,0.5879872538358414
