11.471103775008661,-0.04431899672452258
7.478782138268369,-0.30730454637773574
2.146260827062964,0.8954260356410043
5.401570790459475,1.1814562980194216
6.048118034312657,0.843675591403026
7.594879149258203,0.17902286450980684
4.448062122299665,0.34007099219904896
6.159411787493104,1.8848077764354445
20.96781383104352,0.5460000714234545
4.45837304450009,-0.5328246912821017
3.1633461754875962,0.8645801011708034
6.450932379268984,0.9060194479038832
7.861728600033202,0.41653062330641905
4.87356012071168,-0.0798304725063476
3.633474504730457,0.06917720947260135
6.778636656279565,0.5223294398007311
8.064236021193638,0.5032953551080942
3.803148176332333,0.003257351891845752
6.229631702137134,-0.21108790689452495
6.769351896758286,0.5265100969375649
5.01358724216344,0.5341746732259526
4.358263464587243,0.23574158831537612
4.56849655805818,0.06512458972775247
5.742117643084039,0.4805146047868852
6.406945127315592,0.4444939171205279
6.33761733339717,-0.07015888779368919
4.627514703252661,0.07572020020259398
4.6609481903737136,0.42465765785525417
10.20244696570999,0.15614197415633918
5.834094007160686,-0.1267007886719616
5.095258665980364,-0.3524955206606805
6.463977070797359,1.1196040241595586
10.002031717807787,-0.18566006522318057
6.583102976053518,0.0349228060341247
3.164222678005889,0.08394296338441974
6.17914278218047,0.9893862381266925
9.294050734768021,0.6633357204389846
7.7062109596748645,-0.1586419719529934
3.66031386264452,0.012454111897443576
4.142054692850156,0.6191968158558916
8.419094288468921,0.15137983004339303
7.49456245594531,0.23188555198504476
6.655585525010178,-0.4554367792948439
4.5368419360004335,-0.033423829719492155
4.844743345467332,0.35218260842944393
8.228922668598242,-0.2992783343905899
5.243635780528877,-0.1440114873709341
3.6977842413775304,0.7123171293867094
8.715473723895965,0.5806025438617051
9.41205786199304,-0.4356362501791046
3.7647415131464204,-0.449188700728656
