4.826505000586863,-1.0900464872948001
4.638205367138134,-2.5040002869289015
5.578477977109706,2.9030672865596268
7.728516962868685,1.7049213031250936
8.110897995424304,1.0838784815364833
13.528141005629708,0.6985533244805423
10.296515263321394,-0.010291411007151861
14.522975691617093,-0.5000718373448321
11.081845718387237,-1.571812214601179
18.22585375983479,-2.5773680164902952
14.636793893131925,2.156694206605328
11.994629694842647,1.2026772787727522
13.950169412261772,0.8442201716639268
12.396306880983103,-0.10677459174097906
12.535806931577879,-0.8873047481599594
9.556251718282958,-2.253504375032973
5.693675581685437,2.871774569075153
5.353384043960324,2.1092578452288326
6.354487202378017,1.3277894421365344
8.135699274433637,0.8348301610365277
7.029403631847086,0.42516971128388403
8.066295612052226,-0.3620823434775349
6.75246099442344,-1.1491510398677793
4.275916350026039,-1.9690256366687677
3.244624304762634,-3.0433595664379265
3.8539815006729077,2.4223038611571663
6.685753338603682,1.7192091164397805
8.24250458230731,1.0825111586808795
8.60887203229581,0.32320278519726253
8.89513093772655,-0.29327453887514565
7.362464425707264,-1.1042758423430163
5.644941643946552,-1.7871338300724045
8.158024306277348,-2.6295012006100684
12.456361421976323,2.267987854928574
13.811151450188213,1.3271722030552646
16.29283905141277,0.42619633427613635
16.94105086630369,-0.31317532852805147
13.582331438671492,-1.2746528956686924
10.45007606333198,-1.7687973087362252
11.347568671354274,-2.9378293422127983
11.573708091157345,2.087704174113557
12.837953682389417,1.215802558112925
13.062757954814174,0.549450740714013
14.068661703133849,-0.061528316151445904
11.811635117281138,-0.7446417968377982
9.310519851100528,-1.4888298778183544
9.926322831124173,-2.504190759621452
14.909736397861499,2.8197237927096634
18.64394278591886,1.742599035446397
16.292515817847196,1.024014158052062
18.347032354166302,0.12339081482295086
